\relax 
\providecommand*\new@tpo@label[2]{}
\@writefile{toc}{\contentsline {section}{\numberline {1}Uwarunkowanie programu obliczaj\IeC {\k a}cego iloczyn skalarny (zadanie 1)}{2}}
\@writefile{toc}{\contentsline {subsection}{\numberline {1.1}Opis}{2}}
\@writefile{toc}{\contentsline {subsection}{\numberline {1.2}Wyniki}{2}}
\@writefile{toc}{\contentsline {subsubsection}{\numberline {1.2.1}Arytmetyka Float32}{2}}
\@writefile{toc}{\contentsline {subsubsection}{\numberline {1.2.2}Arytmetyka Float64}{2}}
\@writefile{toc}{\contentsline {subsection}{\numberline {1.3}Wnioski}{2}}
\@writefile{toc}{\contentsline {section}{\numberline {2}Rozwi\IeC {\k a}zywanie uk\IeC {\l }ad\IeC {\'o}w r\IeC {\'o}wna\IeC {\'n} w postaci macierzy (zadanie 2)}{3}}
\@writefile{toc}{\contentsline {subsection}{\numberline {2.1}Opis}{3}}
\@writefile{toc}{\contentsline {subsection}{\numberline {2.2}Implementacja}{3}}
\@writefile{toc}{\contentsline {subsection}{\numberline {2.3}Wyniki}{3}}
\@writefile{toc}{\contentsline {subsubsection}{\numberline {2.3.1}Macierze randomowe}{3}}
\@writefile{toc}{\contentsline {subsubsection}{\numberline {2.3.2}Macierze Hilberta}{3}}
\@writefile{toc}{\contentsline {subsection}{\numberline {2.4}Wnioski}{4}}
\@writefile{toc}{\contentsline {section}{\numberline {3}Wielomian Wilkinsona (zadanie 3)}{4}}
\@writefile{toc}{\contentsline {subsection}{\numberline {3.1}Opis}{4}}
\@writefile{toc}{\contentsline {subsection}{\numberline {3.2}Aplikacja oraz wyniki}{4}}
\@writefile{toc}{\contentsline {subsection}{\numberline {3.3}Wnioski}{4}}
\@writefile{toc}{\contentsline {section}{\numberline {4}Uwarunkowanie r\IeC {\'o}wnania rekurencyjnego (zadanie 4)}{4}}
\@writefile{toc}{\contentsline {subsection}{\numberline {4.1}Opis}{4}}
\@writefile{lof}{\contentsline {figure}{\numberline {3.1}{\ignorespaces Warto\IeC {\'s}ci w miejscach "pierwiastk\IeC {\'o}w" dla postaci normalnej, dla postaci normalnej przy zmienionych parametrach oraz dla postaci iloczynowej}}{5}}
\@writefile{lof}{\contentsline {figure}{\numberline {3.2}{\ignorespaces Warto\IeC {\'s}ci pierwiastk\IeC {\'o}w dla postaci niezmienionej oraz zmodyfikowanej}}{5}}
\@writefile{toc}{\contentsline {subsection}{\numberline {4.2}Wyniki}{6}}
\@writefile{toc}{\contentsline {subsection}{\numberline {4.3}Wnioski}{6}}
\@writefile{toc}{\contentsline {section}{\numberline {5}Ci\IeC {\k a}gi kwadrat\IeC {\'o}w (zadanie 5)}{6}}
\@writefile{toc}{\contentsline {subsection}{\numberline {5.1}Opis}{6}}
\@writefile{toc}{\contentsline {subsection}{\numberline {5.2}Wyniki}{6}}
\@writefile{toc}{\contentsline {subsection}{\numberline {5.3}Wnioski}{6}}
\@writefile{lof}{\contentsline {figure}{\numberline {5.1}{\ignorespaces Kolejne przypadki dla funkcji $x_{n+1} = x^2 + c$, od 3 do 7 licz\IeC {\k a}c od lewej}}{7}}
\global\@namedef{scr@dte@section@lastmaxnumwidth}{10.85587pt}
\global\@namedef{scr@dte@subsection@lastmaxnumwidth}{17.21332pt}
\global\@namedef{scr@dte@subsubsection@lastmaxnumwidth}{25.22871pt}
