16
5.660717500371646
-0.10505719797278795
-0.2548795303297767
3.1679701129957767
1.9250126716818052
-2.2857034676925014
3.9656810490055237
0.06740857416097204
6.271050955670733
0.5155533151223508
3.309614573157267
-4.902721891560539
-0.14960865667399714
0.9094360435639279
3.829915717837017
-2.355859917156972
