\relax 
\providecommand*\new@tpo@label[2]{}
\@writefile{toc}{\contentsline {section}{\numberline {1}Implementacja modu\IeC {\l }u (zadania 1-3)}{1}}
\@writefile{toc}{\contentsline {subsection}{\numberline {1.1}Opis zadania}{1}}
\@writefile{toc}{\contentsline {subsection}{\numberline {1.2}Wykonanie}{2}}
\@writefile{toc}{\contentsline {subsubsection}{\numberline {1.2.1}Iloraz r\IeC {\'o}\IeC {\.z}nicowy}{2}}
\@writefile{toc}{\contentsline {subsubsection}{\numberline {1.2.2}Interpolacja wielomianem Newtona}{2}}
\@writefile{toc}{\contentsline {subsubsection}{\numberline {1.2.3}Rysowanie wykresu interpolowanej funkcji}{2}}
\@writefile{lof}{\contentsline {figure}{\numberline {1.1}{\ignorespaces \textsf  {$e^{2*x}$, wielomian stopnia $\leq 15$}}}{3}}
\@writefile{lof}{\contentsline {figure}{\numberline {1.2}{\ignorespaces \textsf  {$sin(2*x) + e^{cos(x)}$, wielomian stopnia $\leq 5$}}}{3}}
\@writefile{toc}{\contentsline {subsection}{\numberline {1.3}Testy w\IeC {\l }asne}{3}}
\@writefile{toc}{\contentsline {section}{\numberline {2}Uruchomienie modu\IeC {\l }u dla funkcji testowych (zadanie 4)}{3}}
\@writefile{lof}{\contentsline {figure}{\numberline {2.1}{\ignorespaces \textsf  {$e^{x}$, wielomian stopnia $\leq 2, 10, 15$ oraz oryginalna funkcja}}}{4}}
\@writefile{lof}{\contentsline {figure}{\numberline {2.2}{\ignorespaces \textsf  {$x^2 + sin(x)$, wielomian stopnia $\leq 3, 10, 15$ oraz oryginalna funkcja}}}{4}}
\@writefile{lof}{\contentsline {figure}{\numberline {3.1}{\ignorespaces \textsf  {$|x|$, wielomian stopnia $\leq 5, 10, 15$ oraz oryginalna funkcja}}}{5}}
\@writefile{toc}{\contentsline {subsection}{\numberline {2.1}Wnioski}{5}}
\@writefile{toc}{\contentsline {section}{\numberline {3}Badanie zjawiska rozbie\IeC {\.z}no\IeC {\'s}ci (zadanie 5)}{5}}
\@writefile{toc}{\contentsline {subsection}{\numberline {3.1}Wnioski}{5}}
\@writefile{lof}{\contentsline {figure}{\numberline {3.2}{\ignorespaces \textsf  {$\frac  {1}{1 + x^2}$, wielomian stopnia $\leq 5, 10, 15$ oraz oryginalna funkcja}}}{6}}
\global\@namedef{scr@dte@section@lastmaxnumwidth}{10.85587pt}
\global\@namedef{scr@dte@subsection@lastmaxnumwidth}{17.21332pt}
\global\@namedef{scr@dte@subsubsection@lastmaxnumwidth}{25.22871pt}
