\contentsline {section}{\numberline {1}Implementacja modu\IeC {\l }u (zadania 1-3)}{1}
\contentsline {subsection}{\numberline {1.1}Opis zadania}{1}
\contentsline {subsection}{\numberline {1.2}Wykonanie}{2}
\contentsline {subsubsection}{\numberline {1.2.1}Iloraz r\IeC {\'o}\IeC {\.z}nicowy}{2}
\contentsline {subsubsection}{\numberline {1.2.2}Interpolacja wielomianem Newtona}{2}
\contentsline {subsubsection}{\numberline {1.2.3}Rysowanie wykresu interpolowanej funkcji}{2}
\contentsline {subsection}{\numberline {1.3}Testy w\IeC {\l }asne}{3}
\contentsline {section}{\numberline {2}Uruchomienie modu\IeC {\l }u dla funkcji testowych (zadanie 4)}{3}
\contentsline {subsection}{\numberline {2.1}Wnioski}{5}
\contentsline {section}{\numberline {3}Badanie zjawiska rozbie\IeC {\.z}no\IeC {\'s}ci (zadanie 5)}{5}
\contentsline {subsection}{\numberline {3.1}Wnioski}{5}
