GET /login.php HTTP/1.1
Host: dot.steamfox.net
Accept-Encoding: gzip
Connection: keep-alive
User-Agent: Mozilla/5.0 SF/2.10b
Range: bytes=0-399999
Referer: https://dot.steamfox.net/
Cookie: PHPSESSID=jmhu1oclfmdkb7vd8dc46v41f2

