\relax 
\providecommand*\new@tpo@label[2]{}
\@writefile{toc}{\contentsline {section}{\numberline {1}Opis}{1}}
\@writefile{toc}{\contentsline {subsection}{\numberline {1.1}Funkcje}{1}}
\@writefile{toc}{\contentsline {subsection}{\numberline {1.2}Z\IeC {\l }o\IeC {\.z}ono\IeC {\'s}\IeC {\'c} obliczeniowa}{2}}
\@writefile{toc}{\contentsline {section}{\numberline {2}Wyniki}{2}}
\@writefile{toc}{\contentsline {section}{\numberline {3}Wnioski}{3}}
\global\@namedef{scr@dte@section@lastmaxnumwidth}{10.85587pt}
\global\@namedef{scr@dte@subsection@lastmaxnumwidth}{17.21332pt}
