\contentsline {section}{\numberline {1}Opis}{1}
\contentsline {subsection}{\numberline {1.1}Funkcje}{1}
\contentsline {subsection}{\numberline {1.2}Z\IeC {\l }o\IeC {\.z}ono\IeC {\'s}\IeC {\'c} obliczeniowa}{2}
\contentsline {section}{\numberline {2}Wyniki}{2}
\contentsline {section}{\numberline {3}Wnioski}{3}
