Configuring base16-bytestring-0.1.1.6...
Building base16-bytestring-0.1.1.6...
Preprocessing library base16-bytestring-0.1.1.6...
[1 of 2] Compiling Data.ByteString.Base16 ( Data/ByteString/Base16.hs, .stack-work/dist/x86_64-linux/Cabal-1.24.0.0/build/Data/ByteString/Base16.o )
[2 of 2] Compiling Data.ByteString.Base16.Lazy ( Data/ByteString/Base16/Lazy.hs, .stack-work/dist/x86_64-linux/Cabal-1.24.0.0/build/Data/ByteString/Base16/Lazy.o )
Installing library in
/home/dot/.stack/snapshots/x86_64-linux/lts-7.12/8.0.1/lib/x86_64-linux-ghc-8.0.1/base16-bytestring-0.1.1.6-5dPoF8dzhwzBaEB2MvnmIS
Registering base16-bytestring-0.1.1.6...
